lab-3/simulation/qsim/L3.msim.vcd
$comment
	File created using the following command:
		vcd file L3.msim.vcd -direction
$end
$date
	Thu Sep 28 02:18:44 2017
$end
$version
	ModelSim Version 10.5b
$end
$timescale
	1ps
$end

$scope module l3_vhd_vec_tst $end
$var wire 1 ! address [4] $end
$var wire 1 " address [3] $end
$var wire 1 # address [2] $end
$var wire 1 $ address [1] $end
$var wire 1 % address [0] $end
$var wire 1 & clock $end
$var wire 1 ' enable $end
$var wire 1 ( OUTRAM [7] $end
$var wire 1 ) OUTRAM [6] $end
$var wire 1 * OUTRAM [5] $end
$var wire 1 + OUTRAM [4] $end
$var wire 1 , OUTRAM [3] $end
$var wire 1 - OUTRAM [2] $end
$var wire 1 . OUTRAM [1] $end
$var wire 1 / OUTRAM [0] $end
$var wire 1 0 q [7] $end
$var wire 1 1 q [6] $end
$var wire 1 2 q [5] $end
$var wire 1 3 q [4] $end
$var wire 1 4 q [3] $end
$var wire 1 5 q [2] $end
$var wire 1 6 q [1] $end
$var wire 1 7 q [0] $end
$var wire 1 8 Ramaddress1 [4] $end
$var wire 1 9 Ramaddress1 [3] $end
$var wire 1 : Ramaddress1 [2] $end
$var wire 1 ; Ramaddress1 [1] $end
$var wire 1 < Ramaddress1 [0] $end
$var wire 1 = RegOut [7] $end
$var wire 1 > RegOut [6] $end
$var wire 1 ? RegOut [5] $end
$var wire 1 @ RegOut [4] $end
$var wire 1 A RegOut [3] $end
$var wire 1 B RegOut [2] $end
$var wire 1 C RegOut [1] $end
$var wire 1 D RegOut [0] $end
$var wire 1 E ROMClock $end
$var wire 1 F sclr $end
$var wire 1 G wrenRAM $end

$scope module i1 $end
$var wire 1 H gnd $end
$var wire 1 I vcc $end
$var wire 1 J unknown $end
$var wire 1 K devoe $end
$var wire 1 L devclrn $end
$var wire 1 M devpor $end
$var wire 1 N ww_devoe $end
$var wire 1 O ww_devclrn $end
$var wire 1 P ww_devpor $end
$var wire 1 Q ww_OUTRAM [7] $end
$var wire 1 R ww_OUTRAM [6] $end
$var wire 1 S ww_OUTRAM [5] $end
$var wire 1 T ww_OUTRAM [4] $end
$var wire 1 U ww_OUTRAM [3] $end
$var wire 1 V ww_OUTRAM [2] $end
$var wire 1 W ww_OUTRAM [1] $end
$var wire 1 X ww_OUTRAM [0] $end
$var wire 1 Y ww_clock $end
$var wire 1 Z ww_wrenRAM $end
$var wire 1 [ ww_Ramaddress1 [4] $end
$var wire 1 \ ww_Ramaddress1 [3] $end
$var wire 1 ] ww_Ramaddress1 [2] $end
$var wire 1 ^ ww_Ramaddress1 [1] $end
$var wire 1 _ ww_Ramaddress1 [0] $end
$var wire 1 ` ww_sclr $end
$var wire 1 a ww_enable $end
$var wire 1 b ww_q [7] $end
$var wire 1 c ww_q [6] $end
$var wire 1 d ww_q [5] $end
$var wire 1 e ww_q [4] $end
$var wire 1 f ww_q [3] $end
$var wire 1 g ww_q [2] $end
$var wire 1 h ww_q [1] $end
$var wire 1 i ww_q [0] $end
$var wire 1 j ww_ROMClock $end
$var wire 1 k ww_address [4] $end
$var wire 1 l ww_address [3] $end
$var wire 1 m ww_address [2] $end
$var wire 1 n ww_address [1] $end
$var wire 1 o ww_address [0] $end
$var wire 1 p ww_RegOut [7] $end
$var wire 1 q ww_RegOut [6] $end
$var wire 1 r ww_RegOut [5] $end
$var wire 1 s ww_RegOut [4] $end
$var wire 1 t ww_RegOut [3] $end
$var wire 1 u ww_RegOut [2] $end
$var wire 1 v ww_RegOut [1] $end
$var wire 1 w ww_RegOut [0] $end
$var wire 1 x \inst3|sram|ram_block|auto_generated|ram_block1a7_PORTADATAIN_bus\ [0] $end
$var wire 1 y \inst3|sram|ram_block|auto_generated|ram_block1a7_PORTAADDR_bus\ [4] $end
$var wire 1 z \inst3|sram|ram_block|auto_generated|ram_block1a7_PORTAADDR_bus\ [3] $end
$var wire 1 { \inst3|sram|ram_block|auto_generated|ram_block1a7_PORTAADDR_bus\ [2] $end
$var wire 1 | \inst3|sram|ram_block|auto_generated|ram_block1a7_PORTAADDR_bus\ [1] $end
$var wire 1 } \inst3|sram|ram_block|auto_generated|ram_block1a7_PORTAADDR_bus\ [0] $end
$var wire 1 ~ \inst3|sram|ram_block|auto_generated|ram_block1a7_PORTADATAOUT_bus\ [0] $end
$var wire 1 !! \inst3|sram|ram_block|auto_generated|ram_block1a6_PORTADATAIN_bus\ [0] $end
$var wire 1 "! \inst3|sram|ram_block|auto_generated|ram_block1a6_PORTAADDR_bus\ [4] $end
$var wire 1 #! \inst3|sram|ram_block|auto_generated|ram_block1a6_PORTAADDR_bus\ [3] $end
$var wire 1 $! \inst3|sram|ram_block|auto_generated|ram_block1a6_PORTAADDR_bus\ [2] $end
$var wire 1 %! \inst3|sram|ram_block|auto_generated|ram_block1a6_PORTAADDR_bus\ [1] $end
$var wire 1 &! \inst3|sram|ram_block|auto_generated|ram_block1a6_PORTAADDR_bus\ [0] $end
$var wire 1 '! \inst3|sram|ram_block|auto_generated|ram_block1a6_PORTADATAOUT_bus\ [0] $end
$var wire 1 (! \inst3|sram|ram_block|auto_generated|ram_block1a5_PORTADATAIN_bus\ [0] $end
$var wire 1 )! \inst3|sram|ram_block|auto_generated|ram_block1a5_PORTAADDR_bus\ [4] $end
$var wire 1 *! \inst3|sram|ram_block|auto_generated|ram_block1a5_PORTAADDR_bus\ [3] $end
$var wire 1 +! \inst3|sram|ram_block|auto_generated|ram_block1a5_PORTAADDR_bus\ [2] $end
$var wire 1 ,! \inst3|sram|ram_block|auto_generated|ram_block1a5_PORTAADDR_bus\ [1] $end
$var wire 1 -! \inst3|sram|ram_block|auto_generated|ram_block1a5_PORTAADDR_bus\ [0] $end
$var wire 1 .! \inst3|sram|ram_block|auto_generated|ram_block1a5_PORTADATAOUT_bus\ [0] $end
$var wire 1 /! \inst3|sram|ram_block|auto_generated|ram_block1a4_PORTADATAIN_bus\ [0] $end
$var wire 1 0! \inst3|sram|ram_block|auto_generated|ram_block1a4_PORTAADDR_bus\ [4] $end
$var wire 1 1! \inst3|sram|ram_block|auto_generated|ram_block1a4_PORTAADDR_bus\ [3] $end
$var wire 1 2! \inst3|sram|ram_block|auto_generated|ram_block1a4_PORTAADDR_bus\ [2] $end
$var wire 1 3! \inst3|sram|ram_block|auto_generated|ram_block1a4_PORTAADDR_bus\ [1] $end
$var wire 1 4! \inst3|sram|ram_block|auto_generated|ram_block1a4_PORTAADDR_bus\ [0] $end
$var wire 1 5! \inst3|sram|ram_block|auto_generated|ram_block1a4_PORTADATAOUT_bus\ [0] $end
$var wire 1 6! \inst3|sram|ram_block|auto_generated|ram_block1a3_PORTADATAIN_bus\ [0] $end
$var wire 1 7! \inst3|sram|ram_block|auto_generated|ram_block1a3_PORTAADDR_bus\ [4] $end
$var wire 1 8! \inst3|sram|ram_block|auto_generated|ram_block1a3_PORTAADDR_bus\ [3] $end
$var wire 1 9! \inst3|sram|ram_block|auto_generated|ram_block1a3_PORTAADDR_bus\ [2] $end
$var wire 1 :! \inst3|sram|ram_block|auto_generated|ram_block1a3_PORTAADDR_bus\ [1] $end
$var wire 1 ;! \inst3|sram|ram_block|auto_generated|ram_block1a3_PORTAADDR_bus\ [0] $end
$var wire 1 <! \inst3|sram|ram_block|auto_generated|ram_block1a3_PORTADATAOUT_bus\ [0] $end
$var wire 1 =! \inst3|sram|ram_block|auto_generated|ram_block1a2_PORTADATAIN_bus\ [0] $end
$var wire 1 >! \inst3|sram|ram_block|auto_generated|ram_block1a2_PORTAADDR_bus\ [4] $end
$var wire 1 ?! \inst3|sram|ram_block|auto_generated|ram_block1a2_PORTAADDR_bus\ [3] $end
$var wire 1 @! \inst3|sram|ram_block|auto_generated|ram_block1a2_PORTAADDR_bus\ [2] $end
$var wire 1 A! \inst3|sram|ram_block|auto_generated|ram_block1a2_PORTAADDR_bus\ [1] $end
$var wire 1 B! \inst3|sram|ram_block|auto_generated|ram_block1a2_PORTAADDR_bus\ [0] $end
$var wire 1 C! \inst3|sram|ram_block|auto_generated|ram_block1a2_PORTADATAOUT_bus\ [0] $end
$var wire 1 D! \inst3|sram|ram_block|auto_generated|ram_block1a1_PORTADATAIN_bus\ [0] $end
$var wire 1 E! \inst3|sram|ram_block|auto_generated|ram_block1a1_PORTAADDR_bus\ [4] $end
$var wire 1 F! \inst3|sram|ram_block|auto_generated|ram_block1a1_PORTAADDR_bus\ [3] $end
$var wire 1 G! \inst3|sram|ram_block|auto_generated|ram_block1a1_PORTAADDR_bus\ [2] $end
$var wire 1 H! \inst3|sram|ram_block|auto_generated|ram_block1a1_PORTAADDR_bus\ [1] $end
$var wire 1 I! \inst3|sram|ram_block|auto_generated|ram_block1a1_PORTAADDR_bus\ [0] $end
$var wire 1 J! \inst3|sram|ram_block|auto_generated|ram_block1a1_PORTADATAOUT_bus\ [0] $end
$var wire 1 K! \inst3|sram|ram_block|auto_generated|ram_block1a0_PORTADATAIN_bus\ [0] $end
$var wire 1 L! \inst3|sram|ram_block|auto_generated|ram_block1a0_PORTAADDR_bus\ [4] $end
$var wire 1 M! \inst3|sram|ram_block|auto_generated|ram_block1a0_PORTAADDR_bus\ [3] $end
$var wire 1 N! \inst3|sram|ram_block|auto_generated|ram_block1a0_PORTAADDR_bus\ [2] $end
$var wire 1 O! \inst3|sram|ram_block|auto_generated|ram_block1a0_PORTAADDR_bus\ [1] $end
$var wire 1 P! \inst3|sram|ram_block|auto_generated|ram_block1a0_PORTAADDR_bus\ [0] $end
$var wire 1 Q! \inst3|sram|ram_block|auto_generated|ram_block1a0_PORTADATAOUT_bus\ [0] $end
$var wire 1 R! \inst|altsyncram_component|auto_generated|ram_block1a7_PORTAADDR_bus\ [4] $end
$var wire 1 S! \inst|altsyncram_component|auto_generated|ram_block1a7_PORTAADDR_bus\ [3] $end
$var wire 1 T! \inst|altsyncram_component|auto_generated|ram_block1a7_PORTAADDR_bus\ [2] $end
$var wire 1 U! \inst|altsyncram_component|auto_generated|ram_block1a7_PORTAADDR_bus\ [1] $end
$var wire 1 V! \inst|altsyncram_component|auto_generated|ram_block1a7_PORTAADDR_bus\ [0] $end
$var wire 1 W! \inst|altsyncram_component|auto_generated|ram_block1a7_PORTADATAOUT_bus\ [0] $end
$var wire 1 X! \inst|altsyncram_component|auto_generated|ram_block1a6_PORTAADDR_bus\ [4] $end
$var wire 1 Y! \inst|altsyncram_component|auto_generated|ram_block1a6_PORTAADDR_bus\ [3] $end
$var wire 1 Z! \inst|altsyncram_component|auto_generated|ram_block1a6_PORTAADDR_bus\ [2] $end
$var wire 1 [! \inst|altsyncram_component|auto_generated|ram_block1a6_PORTAADDR_bus\ [1] $end
$var wire 1 \! \inst|altsyncram_component|auto_generated|ram_block1a6_PORTAADDR_bus\ [0] $end
$var wire 1 ]! \inst|altsyncram_component|auto_generated|ram_block1a6_PORTADATAOUT_bus\ [0] $end
$var wire 1 ^! \inst|altsyncram_component|auto_generated|ram_block1a5_PORTAADDR_bus\ [4] $end
$var wire 1 _! \inst|altsyncram_component|auto_generated|ram_block1a5_PORTAADDR_bus\ [3] $end
$var wire 1 `! \inst|altsyncram_component|auto_generated|ram_block1a5_PORTAADDR_bus\ [2] $end
$var wire 1 a! \inst|altsyncram_component|auto_generated|ram_block1a5_PORTAADDR_bus\ [1] $end
$var wire 1 b! \inst|altsyncram_component|auto_generated|ram_block1a5_PORTAADDR_bus\ [0] $end
$var wire 1 c! \inst|altsyncram_component|auto_generated|ram_block1a5_PORTADATAOUT_bus\ [0] $end
$var wire 1 d! \inst|altsyncram_component|auto_generated|ram_block1a4_PORTAADDR_bus\ [4] $end
$var wire 1 e! \inst|altsyncram_component|auto_generated|ram_block1a4_PORTAADDR_bus\ [3] $end
$var wire 1 f! \inst|altsyncram_component|auto_generated|ram_block1a4_PORTAADDR_bus\ [2] $end
$var wire 1 g! \inst|altsyncram_component|auto_generated|ram_block1a4_PORTAADDR_bus\ [1] $end
$var wire 1 h! \inst|altsyncram_component|auto_generated|ram_block1a4_PORTAADDR_bus\ [0] $end
$var wire 1 i! \inst|altsyncram_component|auto_generated|ram_block1a4_PORTADATAOUT_bus\ [0] $end
$var wire 1 j! \inst|altsyncram_component|auto_generated|ram_block1a3_PORTAADDR_bus\ [4] $end
$var wire 1 k! \inst|altsyncram_component|auto_generated|ram_block1a3_PORTAADDR_bus\ [3] $end
$var wire 1 l! \inst|altsyncram_component|auto_generated|ram_block1a3_PORTAADDR_bus\ [2] $end
$var wire 1 m! \inst|altsyncram_component|auto_generated|ram_block1a3_PORTAADDR_bus\ [1] $end
$var wire 1 n! \inst|altsyncram_component|auto_generated|ram_block1a3_PORTAADDR_bus\ [0] $end
$var wire 1 o! \inst|altsyncram_component|auto_generated|ram_block1a3_PORTADATAOUT_bus\ [0] $end
$var wire 1 p! \inst|altsyncram_component|auto_generated|ram_block1a2_PORTAADDR_bus\ [4] $end
$var wire 1 q! \inst|altsyncram_component|auto_generated|ram_block1a2_PORTAADDR_bus\ [3] $end
$var wire 1 r! \inst|altsyncram_component|auto_generated|ram_block1a2_PORTAADDR_bus\ [2] $end
$var wire 1 s! \inst|altsyncram_component|auto_generated|ram_block1a2_PORTAADDR_bus\ [1] $end
$var wire 1 t! \inst|altsyncram_component|auto_generated|ram_block1a2_PORTAADDR_bus\ [0] $end
$var wire 1 u! \inst|altsyncram_component|auto_generated|ram_block1a2_PORTADATAOUT_bus\ [0] $end
$var wire 1 v! \inst|altsyncram_component|auto_generated|ram_block1a1_PORTAADDR_bus\ [4] $end
$var wire 1 w! \inst|altsyncram_component|auto_generated|ram_block1a1_PORTAADDR_bus\ [3] $end
$var wire 1 x! \inst|altsyncram_component|auto_generated|ram_block1a1_PORTAADDR_bus\ [2] $end
$var wire 1 y! \inst|altsyncram_component|auto_generated|ram_block1a1_PORTAADDR_bus\ [1] $end
$var wire 1 z! \inst|altsyncram_component|auto_generated|ram_block1a1_PORTAADDR_bus\ [0] $end
$var wire 1 {! \inst|altsyncram_component|auto_generated|ram_block1a1_PORTADATAOUT_bus\ [0] $end
$var wire 1 |! \inst|altsyncram_component|auto_generated|ram_block1a0_PORTAADDR_bus\ [4] $end
$var wire 1 }! \inst|altsyncram_component|auto_generated|ram_block1a0_PORTAADDR_bus\ [3] $end
$var wire 1 ~! \inst|altsyncram_component|auto_generated|ram_block1a0_PORTAADDR_bus\ [2] $end
$var wire 1 !" \inst|altsyncram_component|auto_generated|ram_block1a0_PORTAADDR_bus\ [1] $end
$var wire 1 "" \inst|altsyncram_component|auto_generated|ram_block1a0_PORTAADDR_bus\ [0] $end
$var wire 1 #" \inst|altsyncram_component|auto_generated|ram_block1a0_PORTADATAOUT_bus\ [0] $end
$var wire 1 $" \OUTRAM[7]~output_o\ $end
$var wire 1 %" \OUTRAM[6]~output_o\ $end
$var wire 1 &" \OUTRAM[5]~output_o\ $end
$var wire 1 '" \OUTRAM[4]~output_o\ $end
$var wire 1 (" \OUTRAM[3]~output_o\ $end
$var wire 1 )" \OUTRAM[2]~output_o\ $end
$var wire 1 *" \OUTRAM[1]~output_o\ $end
$var wire 1 +" \OUTRAM[0]~output_o\ $end
$var wire 1 ," \q[7]~output_o\ $end
$var wire 1 -" \q[6]~output_o\ $end
$var wire 1 ." \q[5]~output_o\ $end
$var wire 1 /" \q[4]~output_o\ $end
$var wire 1 0" \q[3]~output_o\ $end
$var wire 1 1" \q[2]~output_o\ $end
$var wire 1 2" \q[1]~output_o\ $end
$var wire 1 3" \q[0]~output_o\ $end
$var wire 1 4" \RegOut[7]~output_o\ $end
$var wire 1 5" \RegOut[6]~output_o\ $end
$var wire 1 6" \RegOut[5]~output_o\ $end
$var wire 1 7" \RegOut[4]~output_o\ $end
$var wire 1 8" \RegOut[3]~output_o\ $end
$var wire 1 9" \RegOut[2]~output_o\ $end
$var wire 1 :" \RegOut[1]~output_o\ $end
$var wire 1 ;" \RegOut[0]~output_o\ $end
$var wire 1 <" \wrenRAM~input_o\ $end
$var wire 1 =" \clock~input_o\ $end
$var wire 1 >" \ROMClock~input_o\ $end
$var wire 1 ?" \address[0]~input_o\ $end
$var wire 1 @" \address[1]~input_o\ $end
$var wire 1 A" \address[2]~input_o\ $end
$var wire 1 B" \address[3]~input_o\ $end
$var wire 1 C" \address[4]~input_o\ $end
$var wire 1 D" \sclr~input_o\ $end
$var wire 1 E" \enable~input_o\ $end
$var wire 1 F" \Ramaddress1[0]~input_o\ $end
$var wire 1 G" \Ramaddress1[1]~input_o\ $end
$var wire 1 H" \Ramaddress1[2]~input_o\ $end
$var wire 1 I" \Ramaddress1[3]~input_o\ $end
$var wire 1 J" \Ramaddress1[4]~input_o\ $end
$var wire 1 K" \inst3|sram|ram_block|auto_generated|q_a\ [7] $end
$var wire 1 L" \inst3|sram|ram_block|auto_generated|q_a\ [6] $end
$var wire 1 M" \inst3|sram|ram_block|auto_generated|q_a\ [5] $end
$var wire 1 N" \inst3|sram|ram_block|auto_generated|q_a\ [4] $end
$var wire 1 O" \inst3|sram|ram_block|auto_generated|q_a\ [3] $end
$var wire 1 P" \inst3|sram|ram_block|auto_generated|q_a\ [2] $end
$var wire 1 Q" \inst3|sram|ram_block|auto_generated|q_a\ [1] $end
$var wire 1 R" \inst3|sram|ram_block|auto_generated|q_a\ [0] $end
$var wire 1 S" \inst|altsyncram_component|auto_generated|q_a\ [7] $end
$var wire 1 T" \inst|altsyncram_component|auto_generated|q_a\ [6] $end
$var wire 1 U" \inst|altsyncram_component|auto_generated|q_a\ [5] $end
$var wire 1 V" \inst|altsyncram_component|auto_generated|q_a\ [4] $end
$var wire 1 W" \inst|altsyncram_component|auto_generated|q_a\ [3] $end
$var wire 1 X" \inst|altsyncram_component|auto_generated|q_a\ [2] $end
$var wire 1 Y" \inst|altsyncram_component|auto_generated|q_a\ [1] $end
$var wire 1 Z" \inst|altsyncram_component|auto_generated|q_a\ [0] $end
$var wire 1 [" \inst2|lpm_ff_component|dffs\ [7] $end
$var wire 1 \" \inst2|lpm_ff_component|dffs\ [6] $end
$var wire 1 ]" \inst2|lpm_ff_component|dffs\ [5] $end
$var wire 1 ^" \inst2|lpm_ff_component|dffs\ [4] $end
$var wire 1 _" \inst2|lpm_ff_component|dffs\ [3] $end
$var wire 1 `" \inst2|lpm_ff_component|dffs\ [2] $end
$var wire 1 a" \inst2|lpm_ff_component|dffs\ [1] $end
$var wire 1 b" \inst2|lpm_ff_component|dffs\ [0] $end
$var wire 1 c" \ALT_INV_clock~input_o\ $end
$upscope $end
$upscope $end
$enddefinitions $end
#0
$dumpvars
0&
1'
0E
0F
1G
0H
1I
xJ
1K
1L
1M
1N
1O
1P
0Y
1Z
0`
1a
0j
0$"
0%"
0&"
0'"
0("
0)"
0*"
0+"
0,"
0-"
0."
0/"
00"
01"
02"
03"
04"
05"
06"
07"
08"
09"
0:"
0;"
1<"
0="
0>"
0?"
0@"
1A"
0B"
0C"
0D"
1E"
0F"
0G"
0H"
0I"
0J"
1c"
0!
0"
1#
0$
0%
08
09
0:
0;
0<
0Q
0R
0S
0T
0U
0V
0W
0X
0[
0\
0]
0^
0_
0b
0c
0d
0e
0f
0g
0h
0i
0k
0l
1m
0n
0o
0p
0q
0r
0s
0t
0u
0v
0w
0x
0~
0!!
0'!
0(!
0.!
0/!
05!
06!
0<!
0=!
0C!
0D!
0J!
0K!
0Q!
0W!
0]!
0c!
0i!
0o!
0u!
0{!
0#"
0K"
0L"
0M"
0N"
0O"
0P"
0Q"
0R"
0S"
0T"
0U"
0V"
0W"
0X"
0Y"
0Z"
0["
0\"
0]"
0^"
0_"
0`"
0a"
0b"
0(
0)
0*
0+
0,
0-
0.
0/
00
01
02
03
04
05
06
07
0=
0>
0?
0@
0A
0B
0C
0D
0y
0z
0{
0|
0}
0"!
0#!
0$!
0%!
0&!
0)!
0*!
0+!
0,!
0-!
00!
01!
02!
03!
04!
07!
08!
09!
0:!
0;!
0>!
0?!
0@!
0A!
0B!
0E!
0F!
0G!
0H!
0I!
0L!
0M!
0N!
0O!
0P!
0R!
0S!
1T!
0U!
0V!
0X!
0Y!
1Z!
0[!
0\!
0^!
0_!
1`!
0a!
0b!
0d!
0e!
1f!
0g!
0h!
0j!
0k!
1l!
0m!
0n!
0p!
0q!
1r!
0s!
0t!
0v!
0w!
1x!
0y!
0z!
0|!
0}!
1~!
0!"
0""
$end
#5000
1&
1E
1Y
1j
1>"
1="
0c"
#10000
0&
0E
0#
1$
1:
0Y
0j
1n
0m
1]
1H"
0A"
1@"
0>"
0="
1N!
1G!
1@!
19!
12!
1+!
1$!
1{
1!"
0~!
1y!
0x!
1s!
0r!
1m!
0l!
1g!
0f!
1a!
0`!
1[!
0Z!
1U!
0T!
1c"
#15000
1&
1E
1Y
1j
1>"
1="
0c"
1u!
1#"
1X"
1Z"
13"
11"
1i
1g
17
15
#20000
0&
0E
1#
1%
0Y
0j
1o
1m
1A"
1?"
0>"
0="
1""
1~!
1z!
1x!
1t!
1r!
1n!
1l!
1h!
1f!
1b!
1`!
1\!
1Z!
1V!
1T!
1c"
#25000
1&
1E
1Y
1j
1>"
1="
0c"
1`"
1b"
1=!
1K!
0u!
1{!
0X"
1Y"
1;"
19"
1w
1u
1D
1B
12"
01"
1h
0g
16
05
#30000
0&
0E
0%
0$
0Y
0j
0o
0n
0@"
0?"
0>"
0="
0""
0!"
0z!
0y!
0t!
0s!
0n!
0m!
0h!
0g!
0b!
0a!
0\!
0[!
0V!
0U!
1c"
#30500
1Q!
1C!
1R"
1P"
1)"
1+"
1V
1X
1/
1-
#35000
1&
1E
1Y
1j
1>"
1="
0c"
0`"
1a"
0=!
1D!
1o!
0{!
0#"
1W"
0Y"
0Z"
1:"
09"
1v
0u
1C
0B
03"
02"
10"
0i
0h
1f
07
06
14
#40000
0&
0E
0#
0:
1;
1<
0Y
0j
0m
1_
1^
0]
0H"
1G"
1F"
0A"
0>"
0="
1P!
1O!
0N!
1I!
1H!
0G!
1B!
1A!
0@!
1;!
1:!
09!
14!
13!
02!
1-!
1,!
0+!
1&!
1%!
0$!
1}
1|
0{
0~!
0x!
0r!
0l!
0f!
0`!
0Z!
0T!
1c"
#40500
1J!
0C!
1Q"
0P"
0)"
1*"
0V
1W
1.
0-
#45000
1&
1E
1Y
1j
1>"
1="
0c"
1_"
0a"
0b"
16!
0D!
0K!
0o!
1u!
1#"
0W"
1X"
1Z"
0;"
0:"
18"
0w
0v
1t
0D
0C
1A
13"
11"
00"
1i
1g
0f
17
15
04
#50000
0&
0E
0Y
0j
0>"
0="
1c"
#50500
0Q!
0J!
1<!
0R"
0Q"
1O"
1("
0*"
0+"
1U
0W
0X
0/
0.
1,
#55000
1&
1E
1Y
1j
1>"
1="
0c"
0_"
1`"
1b"
06!
1=!
1K!
0u!
0X"
1;"
19"
08"
1w
1u
0t
1D
1B
0A
01"
0g
05
#60000
0&
0E
0Y
0j
0>"
0="
1c"
#60500
1Q!
1C!
0<!
1R"
1P"
0O"
0("
1)"
1+"
0U
1V
1X
1/
1-
0,
#65000
1&
1E
1Y
1j
1>"
1="
0c"
0`"
0=!
09"
0u
0B
#70000
0&
0E
0;
0Y
0j
0^
0G"
0>"
0="
0O!
0H!
0A!
0:!
03!
0,!
0%!
0|
1c"
#70500
0C!
0P"
0)"
0V
0-
#75000
1&
1E
1Y
1j
1>"
1="
0c"
#80000
0&
0E
0Y
0j
0>"
0="
1c"
#85000
1&
1E
1Y
1j
1>"
1="
0c"
#90000
0&
0E
0Y
0j
0>"
0="
1c"
#95000
1&
1E
1Y
1j
1>"
1="
0c"
#100000
0&
0E
0Y
0j
0>"
0="
1c"
#105000
1&
1E
1Y
1j
1>"
1="
0c"
#110000
0&
0E
0Y
0j
0>"
0="
1c"
#115000
1&
1E
1Y
1j
1>"
1="
0c"
#120000
0&
0E
0<
0Y
0j
0_
0F"
0>"
0="
0P!
0I!
0B!
0;!
04!
0-!
0&!
0}
1c"
#125000
1&
1E
1Y
1j
1>"
1="
0c"
#130000
0&
0E
0Y
0j
0>"
0="
1c"
#135000
1&
1E
1Y
1j
1>"
1="
0c"
#140000
0&
0E
0Y
0j
0>"
0="
1c"
#145000
1&
1E
1Y
1j
1>"
1="
0c"
#150000
0&
0E
0Y
0j
0>"
0="
1c"
#155000
1&
1E
1Y
1j
1>"
1="
0c"
#160000
0&
0E
0Y
0j
0>"
0="
1c"
#165000
1&
1E
1Y
1j
1>"
1="
0c"
#170000
0&
0E
0Y
0j
0>"
0="
1c"
#175000
1&
1E
1Y
1j
1>"
1="
0c"
#180000
0&
0E
0Y
0j
0>"
0="
1c"
#185000
1&
1E
1Y
1j
1>"
1="
0c"
#190000
0&
0E
0Y
0j
0>"
0="
1c"
#195000
1&
1E
1Y
1j
1>"
1="
0c"
#200000
0&
0E
0Y
0j
0>"
0="
1c"
#205000
1&
1E
1Y
1j
1>"
1="
0c"
#210000
0&
0E
0Y
0j
0>"
0="
1c"
#215000
1&
1E
1Y
1j
1>"
1="
0c"
#220000
0&
0E
0Y
0j
0>"
0="
1c"
#225000
1&
1E
1Y
1j
1>"
1="
0c"
#230000
0&
0E
0Y
0j
0>"
0="
1c"
#235000
1&
1E
1Y
1j
1>"
1="
0c"
#240000
0&
0E
0Y
0j
0>"
0="
1c"
#245000
1&
1E
1Y
1j
1>"
1="
0c"
#250000
0&
0E
0Y
0j
0>"
0="
1c"
#255000
1&
1E
1Y
1j
1>"
1="
0c"
#260000
0&
0E
0Y
0j
0>"
0="
1c"
#265000
1&
1E
1Y
1j
1>"
1="
0c"
#270000
0&
0E
0Y
0j
0>"
0="
1c"
#275000
1&
1E
1Y
1j
1>"
1="
0c"
#280000
0&
0E
0Y
0j
0>"
0="
1c"
#285000
1&
1E
1Y
1j
1>"
1="
0c"
#290000
0&
0E
0Y
0j
0>"
0="
1c"
#295000
1&
1E
1Y
1j
1>"
1="
0c"
#300000
0&
0E
0Y
0j
0>"
0="
1c"
#305000
1&
1E
1Y
1j
1>"
1="
0c"
#310000
0&
0E
0Y
0j
0>"
0="
1c"
#315000
1&
1E
1Y
1j
1>"
1="
0c"
#320000
0&
0E
0Y
0j
0>"
0="
1c"
#325000
1&
1E
1Y
1j
1>"
1="
0c"
#330000
0&
0E
0Y
0j
0>"
0="
1c"
#335000
1&
1E
1Y
1j
1>"
1="
0c"
#340000
0&
0E
0Y
0j
0>"
0="
1c"
#345000
1&
1E
1Y
1j
1>"
1="
0c"
#350000
0&
0E
0Y
0j
0>"
0="
1c"
#355000
1&
1E
1Y
1j
1>"
1="
0c"
#360000
0&
0E
0Y
0j
0>"
0="
1c"
#365000
1&
1E
1Y
1j
1>"
1="
0c"
#370000
0&
0E
0Y
0j
0>"
0="
1c"
#375000
1&
1E
1Y
1j
1>"
1="
0c"
#380000
0&
0E
0Y
0j
0>"
0="
1c"
#385000
1&
1E
1Y
1j
1>"
1="
0c"
#390000
0&
0E
0Y
0j
0>"
0="
1c"
#395000
1&
1E
1Y
1j
1>"
1="
0c"
#400000
0&
0E
0Y
0j
0>"
0="
1c"
#405000
1&
1E
1Y
1j
1>"
1="
0c"
#410000
0&
0E
0Y
0j
0>"
0="
1c"
#415000
1&
1E
1Y
1j
1>"
1="
0c"
#420000
0&
0E
0Y
0j
0>"
0="
1c"
#425000
1&
1E
1Y
1j
1>"
1="
0c"
#430000
0&
0E
0Y
0j
0>"
0="
1c"
#435000
1&
1E
1Y
1j
1>"
1="
0c"
#440000
0&
0E
0Y
0j
0>"
0="
1c"
#445000
1&
1E
1Y
1j
1>"
1="
0c"
#450000
0&
0E
0Y
0j
0>"
0="
1c"
#455000
1&
1E
1Y
1j
1>"
1="
0c"
#460000
0&
0E
0Y
0j
0>"
0="
1c"
#465000
1&
1E
1Y
1j
1>"
1="
0c"
#470000
0&
0E
0Y
0j
0>"
0="
1c"
#475000
1&
1E
1Y
1j
1>"
1="
0c"
#480000
0&
0E
0Y
0j
0>"
0="
1c"
#485000
1&
1E
1Y
1j
1>"
1="
0c"
#490000
0&
0E
0Y
0j
0>"
0="
1c"
#495000
1&
1E
1Y
1j
1>"
1="
0c"
#500000
0&
0E
0Y
0j
0>"
0="
1c"
#505000
1&
1E
1Y
1j
1>"
1="
0c"
#510000
0&
0E
0Y
0j
0>"
0="
1c"
#515000
1&
1E
1Y
1j
1>"
1="
0c"
#520000
0&
0E
0Y
0j
0>"
0="
1c"
#525000
1&
1E
1Y
1j
1>"
1="
0c"
#530000
0&
0E
0Y
0j
0>"
0="
1c"
#535000
1&
1E
1Y
1j
1>"
1="
0c"
#540000
0&
0E
0Y
0j
0>"
0="
1c"
#545000
1&
1E
1Y
1j
1>"
1="
0c"
#550000
0&
0E
0Y
0j
0>"
0="
1c"
#555000
1&
1E
1Y
1j
1>"
1="
0c"
#560000
0&
0E
0Y
0j
0>"
0="
1c"
#565000
1&
1E
1Y
1j
1>"
1="
0c"
#570000
0&
0E
0Y
0j
0>"
0="
1c"
#575000
1&
1E
1Y
1j
1>"
1="
0c"
#580000
0&
0E
0Y
0j
0>"
0="
1c"
#585000
1&
1E
1Y
1j
1>"
1="
0c"
#590000
0&
0E
0Y
0j
0>"
0="
1c"
#595000
1&
1E
1Y
1j
1>"
1="
0c"
#600000
0&
0E
0Y
0j
0>"
0="
1c"
#605000
1&
1E
1Y
1j
1>"
1="
0c"
#610000
0&
0E
0Y
0j
0>"
0="
1c"
#615000
1&
1E
1Y
1j
1>"
1="
0c"
#620000
0&
0E
0Y
0j
0>"
0="
1c"
#625000
1&
1E
1Y
1j
1>"
1="
0c"
#630000
0&
0E
0Y
0j
0>"
0="
1c"
#635000
1&
1E
1Y
1j
1>"
1="
0c"
#640000
0&
0E
0Y
0j
0>"
0="
1c"
#645000
1&
1E
1Y
1j
1>"
1="
0c"
